HTTP/1.1 200 OK
Date: Wed, 06 Jun 2018 10:45:21 GMT
Content-Type: application/json; charset=utf-8
Transfer-Encoding: chunked
Connection: keep-alive
Set-Cookie: __cfduid=d5e6a589a0ad4a90e04d0ab3103b295931528281916; expires=Thu, 06-Jun-19 10:45:16 GMT; path=/; domain=.reqres.in; HttpOnly
X-Powered-By: Express
Access-Control-Allow-Origin: *
ETag: W/"1bb-D+c3sZ5g5u/nmLPQRl1uVo2heAo"
Expect-CT: max-age=604800, report-uri="https://report-uri.cloudflare.com/cdn-cgi/beacon/expect-ct"
Server: cloudflare
CF-RAY: 426a49dc2f8a9ff0-IAD
Content-Encoding: gzip

{
    "page": 1,
    "per_page": 3,
    "total": 12,
    "total_pages": 4,
    "data": [
        {
            "id": 1,
            "first_name": "George",
            "last_name": "Bluth",
            "avatar": "https://s3.amazonaws.com/uifaces/faces/twitter/calebogden/128.jpg"
        },
        {
            "id": 2,
            "first_name": "Janet",
            "last_name": "Weaver",
            "avatar": "https://s3.amazonaws.com/uifaces/faces/twitter/josephstein/128.jpg"
        },
        {
            "id": 3,
            "first_name": "Emma",
            "last_name": "Wong",
            "avatar": "https://s3.amazonaws.com/uifaces/faces/twitter/olegpogodaev/128.jpg"
        }
    ]
}
