HTTP/1.1 200 OK
Date: Wed, 06 Jun 2018 10:45:38 GMT
Content-Type: application/json; charset=utf-8
Transfer-Encoding: chunked
Connection: keep-alive
Set-Cookie: __cfduid=d3617e293c36f1e6d966fdf4a731038391528281938; expires=Thu, 06-Jun-19 10:45:38 GMT; path=/; domain=.reqres.in; HttpOnly
X-Powered-By: Express
Access-Control-Allow-Origin: *
ETag: W/"1bb-wM9a6JWbwt3JpLNfwoQwxnqaC3Y"
Expect-CT: max-age=604800, report-uri="https://report-uri.cloudflare.com/cdn-cgi/beacon/expect-ct"
Server: cloudflare
CF-RAY: 426a4a63ed079ff0-IAD
Content-Encoding: gzip

{
    "page": 2,
    "per_page": 3,
    "total": 12,
    "total_pages": 4,
    "data": [
        {
            "id": 4,
            "first_name": "Eve",
            "last_name": "Holt",
            "avatar": "https://s3.amazonaws.com/uifaces/faces/twitter/marcoramires/128.jpg"
        },
        {
            "id": 5,
            "first_name": "Charles",
            "last_name": "Morris",
            "avatar": "https://s3.amazonaws.com/uifaces/faces/twitter/stephenmoon/128.jpg"
        },
        {
            "id": 6,
            "first_name": "Tracey",
            "last_name": "Ramos",
            "avatar": "https://s3.amazonaws.com/uifaces/faces/twitter/bigmancho/128.jpg"
        }
    ]
}
